…
```
## [1] "Age"          "Attrition"    "WorkTravel"   "DailyRate"   
## [5] "Department"   "DistFromHome"
```

```r
# 2C - Due to Qualtrics, the following columns will have its integer value replaced by the definitions provided in the "Data Definitions" sheet.  
## Will need to seperate the integer and characters into two seperate columns.
datadefDF <- read_excel ("CaseStudy2-data.xlsx", "Data Definitions")
datadefDF
```

```
## # A tibble: 34 x 2
##    Education               `1 'Below College'`
##    <chr>                   <chr>              
##  1 <NA>                    2 'College'        
##  2 <NA>                    3 'Bachelor'       
##  3 <NA>                    4 'Master'         
##  4 <NA>                    5 'Doctor'         
##  5 <NA>                    <NA>               
##  6 EnvironmentSatisfaction 1 'Low'            
##  7 <NA>                    2 'Medium'         
##  8 <NA>                    3 'High'           
##  9 <NA>                    4 'Very High'      
## 10 <NA>                    <NA>               
## # ... with 24 more rows
```
…
